{
    "data": {
        "id":100,
        "name": "Usuarios",  
        "pathUrl": "usuarios",  
        "prefix": "USERS",  
        "path": "modules/users/",  
        "color": "#6F91E9",  
        "type":"administrator",
        "indexJs": "components/users.js",  
        "css": "assets/css/users.css",  
        "icon": "icon-users"
    }
}